[{"id":833,"name":"Ḩeşār-e Sefīd","state":"","country":"IR","coord":{"lon":47.159401,"lat":34.330502}},
{"id":106909,"name":"Duba","state":"","country":"SA","coord":{"lon":35.69014,"lat":27.351339}},
{"id":107304,"name":"Buraydah","state":"","country":"SA","coord":{"lon":43.974972,"lat":26.325991}},
{"id":107312,"name":"Abqaiq","state":"","country":"SA","coord":{"lon":49.677608,"lat":25.937099}},
{"id":107392,"name":"Birzayn","state":"","country":"SA","coord":{"lon":42.783329,"lat":18.25}},
{"id":107684,"name":"Banbān","state":"","country":"SA","coord":{"lon":46.588058,"lat":25.001671}},
{"id":107744,"name":"Badr Ḩunayn","state":"","country":"SA","coord":{"lon":38.79047,"lat":23.782921}},
{"id":107781,"name":"Az Zulfī","state":"","country":"SA","coord":{"lon":44.815418,"lat":26.29945}},
{"id":107797,"name":"Dhahran","state":"","country":"SA","coord":{"lon":50.135281,"lat":26.30324}},
{"id":107959,"name":"Aţ Ţaraf","state":"","country":"SA","coord":{"lon":49.72504,"lat":25.362761}},
{"id":107968,"name":"Ta’if","state":"","country":"SA","coord":{"lon":40.415829,"lat":21.270281}},
{"id":108048,"name":"As Sulayyil","state":"","country":"SA","coord":{"lon":45.577919,"lat":20.46067}},
{"id":108052,"name":"As Sulaymānīyah","state":"","country":"SA","coord":{"lon":47.295559,"lat":24.12361}},
{"id":108121,"name":"Sājir","state":"","country":"SA","coord":{"lon":44.59964,"lat":25.18251}},
{"id":108142,"name":"As Saffānīyah","state":"","country":"SA","coord":{"lon":48.73,"lat":27.970831}},
{"id":108179,"name":"Minţaqat ‘Asīr","state":"","country":"SA","coord":{"lon":43.166672,"lat":19.16667}},
{"id":108190,"name":"Ash Shurayf","state":"","country":"SA","coord":{"lon":39.282341,"lat":25.707081}},
{"id":108210,"name":"Ash Shubramīyah","state":"","country":"SA","coord":{"lon":44.130001,"lat":24.253611}},
{"id":108241,"name":"Al Minţaqah ash Sharqīyah","state":"","country":"SA","coord":{"lon":51,"lat":22.5}},
{"id":108384,"name":"Ar Ruqayyiqah","state":"","country":"SA","coord":{"lon":49.566669,"lat":25.35}},
{"id":108410,"name":"Riyadh","state":"","country":"SA","coord":{"lon":46.721851,"lat":24.687731}},
{"id":108411,"name":"Minţaqat ar Riyāḑ","state":"","country":"SA","coord":{"lon":45.333328,"lat":23.33333}},
{"id":108435,"name":"Ar Rass","state":"","country":"SA","coord":{"lon":43.497299,"lat":25.86944}},
{"id":108512,"name":"Arar","state":"","country":"SA","coord":{"lon":41.038078,"lat":30.975309}},
{"id":108617,"name":"An Nimāş","state":"","country":"SA","coord":{"lon":42.120098,"lat":19.14547}},
{"id":8261417,"name":"Recoleta","state":"","country":"CL","coord":{"lon":-70.636383,"lat":-33.40881}},{"id":8277210,"name":"Beldibi","state":"","country":"TR","coord":{"lon":30.707411,"lat":40.592731}},{"id":10722858,"name":"Forsytheganj","state":"","country":"BY","coord":{"lon":29.733333,"lat":52.633333}},{"id":71296900,"name":"Голубинка","state":"","country":"UA","coord":{"lon":33.92,"lat":44.59}},{"id":102908597,"name":"Gerton","state":"","country":"US","coord":{"lon":-82.348056,"lat":35.479167}},{"id":536203,"name":"Saint Petersburg","state":"","country":"RU","coord":{"lon":30.25,"lat":59.916668}}]